{
    "name": "Gameplay.View",
    "rootNamespace": "",
    "references": [
        "GUID:c0900a7298dc34dd08023de4a941740f",
        "GUID:f119ad131361e45c4914d37b289e23c2",
        "GUID:4307f53044263cf4b835bd812fc161a4",
        "GUID:6055be8ebefd69e48b49212b09b47b2f"
    ],
    "includePlatforms": [],
    "excludePlatforms": [],
    "allowUnsafeCode": false,
    "overrideReferences": false,
    "precompiledReferences": [],
    "autoReferenced": true,
    "defineConstraints": [],
    "versionDefines": [],
    "noEngineReferences": false
}